{
  "globalDevDependencies": {
    "jquery": "registry:dt/jquery#1.10.0+20170310222111",
    "node": "registry:dt/node#7.0.0+20170322231424",
    "socket.io": "registry:dt/socket.io#1.4.4+20170313110830"
  }
}
